Title: Nosotros

----

Blocks: [{"attrs":{"background":[],"alignvertical":"top","paddingtop":"true","paddingbottom":"true","columnreverse":"false","visibility":"true","customid":"","customclass":""},"columns":[{"blocks":[{"content":{"level":"h1","text":"Humanxs"},"id":"27a6f77d-d608-4dd2-9fbf-0dfdf17b3afb","isHidden":false,"type":"heading"}],"id":"4f1ff40c-7a2f-4a91-b17b-553bedeb324d","width":"1\/1"}],"id":"75485727-c2ef-44c0-a072-78159889eb81"},{"attrs":{"background":[],"alignvertical":"top","paddingtop":"true","paddingbottom":"true","columnreverse":"false","visibility":"true","customid":"","customclass":""},"columns":[{"blocks":[{"content":{"level":"h2","text":"En 1999, vimos la oportunidad de marcar la diferencia en una industria que nos apasiona. Comenzamos <strong>CIS M\u00e9xico<\/strong> como una idea retadora y disruptora, una nueva generaci\u00f3n de consultor\u00eda en estudios de mercado y sociol\u00f3gicos, donde la atenci\u00f3n a la precisi\u00f3n y las personas son el catalizador n\u00famero uno para el crecimiento en la industria de la innovaci\u00f3n."},"id":"fafa000d-4a2b-45e8-8afa-7863fe89cd2f","isHidden":false,"type":"heading"}],"id":"492acbbc-25cf-473d-96d3-6dce3b554eb7","width":"1\/1"}],"id":"6b515dea-6ba1-460d-a447-d7338e0f0f0a"},{"attrs":{"background":[],"alignvertical":"top","paddingtop":"true","paddingbottom":"true","columnreverse":"false","visibility":"true","customid":"","customclass":""},"columns":[{"blocks":[{"content":{"text":"<p>Estamos reinventando la precisi\u00f3n en la industria. Hemos trabajado con cientos de equipos e individuos en todo el mundo para brindar experiencias estudios de mercado, sociol\u00f3gicos y de opini\u00f3n p\u00fablica que brindan resultados y nuestros clientes valoran. Sabemos esto porque ellos nos lo dicen. Y porque vuelven a trabajar con nosotros.<\/p><p>La innovaci\u00f3n en el humano es emocionante. Define nuestra experiencia contempor\u00e1nea y su influencia se siente en todo el mundo. Nos apasiona la innovaci\u00f3n y nos aseguramos de apropiarla en todos nuestros procesos.<\/p>"},"id":"25633aa1-cfdb-4857-a3e3-8d9681f56d26","isHidden":false,"type":"text"}],"id":"101bd818-c58d-4c79-b091-2eedbe45131c","width":"1\/1"}],"id":"8589ab3c-aef7-490e-8915-a4af4a8dba22"},{"attrs":{"background":[],"alignvertical":"top","paddingtop":"true","paddingbottom":"true","columnreverse":"false","visibility":"true","customid":"","customclass":""},"columns":[{"blocks":[{"content":{"level":"h1","text":"Valor #1"},"id":"a596c40a-f28b-454e-92a2-5835688ddfdc","isHidden":false,"type":"heading"}],"id":"1619b610-bb4e-4b55-b924-434e43745142","width":"1\/2"},{"blocks":[{"content":{"text":"<p>Descripci\u00f3n de valor 1<\/p>"},"id":"dd76b7bd-7bce-48b7-aa62-a4ca57b50a80","isHidden":false,"type":"text"}],"id":"f93dec74-4109-44af-8d80-3f8a43dfcd54","width":"1\/2"}],"id":"7404a87e-666c-4f8f-8332-658ae9d22a17"},{"attrs":{"background":[],"alignvertical":"top","paddingtop":"true","paddingbottom":"true","columnreverse":"false","visibility":"true","customid":"","customclass":""},"columns":[{"blocks":[{"content":{"level":"h1","text":"Valor #2"},"id":"3370dc86-d904-49b4-980b-3c180e039cd8","isHidden":false,"type":"heading"}],"id":"e1545e45-e1d8-4cd8-aa4a-7077cb4bb70f","width":"1\/2"},{"blocks":[{"content":{"text":"<p>Descripci\u00f3n de valor 2<\/p>"},"id":"4133d48a-4616-4560-a88e-de30d6b26bf9","isHidden":false,"type":"text"}],"id":"30def97b-63c3-450d-893c-e62c57f96bbc","width":"1\/2"}],"id":"e734f928-0036-4343-99c5-1722f7288d5b"},{"attrs":{"background":[],"alignvertical":"top","paddingtop":"true","paddingbottom":"true","columnreverse":"false","visibility":"true","customid":"","customclass":""},"columns":[{"blocks":[{"content":{"level":"h1","text":"Valor #3"},"id":"f52097cd-64e6-4516-a939-968783dbdbe8","isHidden":false,"type":"heading"}],"id":"fafabef4-9ce0-4a6f-b7a3-2d3eafb29170","width":"1\/2"},{"blocks":[{"content":{"text":"<p>Descripci\u00f3n de valor 3<\/p>"},"id":"68d051c4-c416-4ceb-9407-2d33e8669c73","isHidden":false,"type":"text"}],"id":"83eb2896-8094-46b0-aa63-b5ef711bc465","width":"1\/2"}],"id":"f144f30d-bab5-4359-9c60-b66ff6181ac3"},{"attrs":{"background":[],"alignvertical":"top","paddingtop":"true","paddingbottom":"true","columnreverse":"false","visibility":"true","customid":"","customclass":""},"columns":[{"blocks":[{"content":[],"id":"1107731a-2356-4b02-a9ac-b13f3b854752","isHidden":false,"type":"spacer"}],"id":"cc10f963-fb06-4daa-9b7f-570ddad03eb6","width":"1\/1"}],"id":"81091536-d914-444c-8251-15076769ffe8"},{"attrs":{"background":[],"alignvertical":"top","paddingtop":"true","paddingbottom":"true","columnreverse":"false","visibility":"true","customid":"","customclass":""},"columns":[{"blocks":[{"content":{"level":"h1","text":"Principios e Ideas:"},"id":"d8ba2789-55bb-4525-94a7-2e15e6f2161e","isHidden":false,"type":"heading"},{"content":{"level":"h2","text":"Nuestra intenci\u00f3n es ser inclasificables en un panorama de investigaci\u00f3n desordenado."},"id":"0824508f-df88-41c8-bd92-7a03797ec30e","isHidden":false,"type":"heading"},{"content":{"level":"h2","text":"Con una esencia digital, nacimos en la intersecci\u00f3n de la creatividad y la tecnolog\u00eda."},"id":"3226c208-d9f0-4fd6-a3cb-53bcdeb62273","isHidden":false,"type":"heading"},{"content":{"level":"h2","text":"Abordamos los datos como estrategia, no solo como t\u00e1ctica."},"id":"ec94d682-dc61-49c8-9550-948f8ad246fa","isHidden":false,"type":"heading"},{"content":{"level":"h2","text":"Nos especializamos en categor\u00edas que est\u00e1n experimentando una interrupci\u00f3n significativa."},"id":"b98fcb4e-8799-4dc1-9a0b-4938087a1931","isHidden":false,"type":"heading"},{"content":{"level":"h2","text":"Estamos en el negocio de desarrollar capacidades para nuestros clientes."},"id":"0671ef3f-696a-4a72-bd0b-03d06f9b1635","isHidden":false,"type":"heading"},{"content":{"level":"h2","text":"Estamos potenciados por nuestra propia humanidad."},"id":"09332305-bda9-4b79-b5e9-ddc01162f135","isHidden":false,"type":"heading"}],"id":"85917ed2-420e-459c-a9eb-6633b1d1ddce","width":"1\/1"}],"id":"6ec34afa-35c8-45f0-baed-c65fd3149fee"},{"attrs":{"background":[],"alignvertical":"top","paddingtop":"true","paddingbottom":"true","columnreverse":"false","visibility":"true","customid":"","customclass":""},"columns":[{"blocks":[{"content":[],"id":"b4c0e6c9-d40a-4dbe-9d5a-21193c1f6ce4","isHidden":false,"type":"spacer"}],"id":"1d70d4d0-6601-44f8-a6b8-8099b7a1bcf6","width":"1\/1"}],"id":"7471c4cb-c35b-4f3f-affb-4015afca0d35"},{"attrs":{"background":[],"alignvertical":"top","paddingtop":"true","paddingbottom":"true","columnreverse":"false","visibility":"true","customid":"","customclass":""},"columns":[{"blocks":[{"content":{"level":"h1","text":"Una cultura humana de innovaci\u00f3n"},"id":"469357c7-ef58-41eb-911c-4df155555ba5","isHidden":false,"type":"heading"}],"id":"f4bc2fca-f908-4013-b139-20ece7a155db","width":"1\/1"}],"id":"8fe86e6b-c832-4b28-ae42-6dc8ffb6b109"},{"attrs":{"background":[],"alignvertical":"top","paddingtop":"true","paddingbottom":"true","columnreverse":"false","visibility":"true","customid":"","customclass":""},"columns":[{"blocks":[{"content":{"text":"<p>Tenemos una gran personalidad. Somos una empresa creativa con una mentalidad de crecimiento y todo lo que hacemos resuelve nuestra misi\u00f3n de dar vida a la Innovaci\u00f3n. Sabemos que nuestra gente nos hace quienes somos; nunca olvidamos esto y hacemos que parte de nuestra misi\u00f3n sea desarrollarnos como personas. Nuestra oficina es m\u00e1s que un espacio para trabajar y jugar, es un lugar donde la libertad, la creatividad y la imaginaci\u00f3n se encuentran. <strong>CIS M\u00e9xico<\/strong> es m\u00e1s que una empresa, es un lugar donde puedes ser y expresarte. Somos valientes y ambiciosos, y nos atrevemos a ser audaces.<\/p>"},"id":"ddfaa080-af6a-4551-b126-8ee97ef57cf1","isHidden":false,"type":"text"}],"id":"cac396a7-4a6f-4c0c-aa82-5b699d972730","width":"1\/1"}],"id":"b3ac9601-a3c6-4824-a28f-d0bd8e4cec2b"},{"attrs":{"background":[],"alignvertical":"top","paddingtop":"true","paddingbottom":"true","columnreverse":"false","visibility":"true","customid":"","customclass":""},"columns":[{"blocks":[{"content":{"location":"kirby","image":["68163efb3c2201721d8e681cde6aef2b.jpg"],"src":"","alt":"","caption":null,"link":"","ratio":"","crop":"false"},"id":"075d0d6b-a25a-4a91-9aa5-cef692f39e53","isHidden":false,"type":"image"},{"content":{"text":"<p>Miembro del equipo<\/p><p>Rol \/ Posici\u00f3n<\/p><p>Descripci\u00f3n \/ Biograf\u00eda corta.<\/p>"},"id":"eea8516b-6296-4b0c-861e-87fdc64c2360","isHidden":false,"type":"text"}],"id":"6e92a6a5-f3ef-4d11-8e77-bcbb28950f47","width":"1\/4"},{"blocks":[{"content":{"location":"kirby","image":[],"src":"","alt":"","caption":"","link":"","ratio":"","crop":"false"},"id":"87de0b0d-aff5-4676-b1a6-f5aac414e9ec","isHidden":false,"type":"image"},{"content":{"text":"<p>Miembro del equipo<\/p><p>Rol \/ Posici\u00f3n<\/p><p>Descripci\u00f3n \/ Biograf\u00eda corta.<\/p>"},"id":"2f4781ea-7f00-4e58-933d-950d04011729","isHidden":false,"type":"text"}],"id":"8863385f-a6f0-480f-ab4f-5eb040346abd","width":"1\/4"},{"blocks":[{"content":{"location":"kirby","image":[],"src":"","alt":"","caption":null,"link":"","ratio":"","crop":"false"},"id":"2e978028-9a97-437a-9927-d07cb63d3209","isHidden":false,"type":"image"},{"content":{"text":"<p>Miembro del equipo<\/p><p>Rol \/ Posici\u00f3n<\/p><p>Descripci\u00f3n \/ Biograf\u00eda corta.<\/p>"},"id":"924958ad-2662-4636-86af-fd5741b5f858","isHidden":false,"type":"text"}],"id":"d2fe6250-773e-4b39-b633-ae59faca80d5","width":"1\/4"},{"blocks":[{"content":{"location":"kirby","image":[],"src":"","alt":"","caption":"","link":"","ratio":"","crop":"false"},"id":"db754a87-541a-43ee-b2d9-206c539a099d","isHidden":false,"type":"image"},{"content":{"text":"<p>Miembro del equipo<\/p><p>Rol \/ Posici\u00f3n<\/p><p>Descripci\u00f3n \/ Biograf\u00eda corta.<\/p>"},"id":"296b189c-1bb6-4a38-b781-15ac55a8e49b","isHidden":false,"type":"text"}],"id":"05983843-a250-45ba-acc0-c948364acab7","width":"1\/4"}],"id":"6bff7597-7bd3-4bf3-b3b2-fddb7bc5cee7"}]

----

Specialhero: 

----

Heroheadingfontsize: 

----

Herobuttons: 

----

Heropaddingtop: false

----

Heropaddingbottom: true

----

Date: 

----

Cover: 

----

Customcss: 

----

Codeheader: 

----

Codefooter: 

----

Hero: 