<?xml version="1.0" standalone="no"?>
<!DOCTYPE svg PUBLIC "-//W3C//DTD SVG 20010904//EN"
 "http://www.w3.org/TR/2001/REC-SVG-20010904/DTD/svg10.dtd">
<svg version="1.0" xmlns="http://www.w3.org/2000/svg"
 width="512.000000pt" height="512.000000pt" viewBox="0 0 512.000000 512.000000"
 preserveAspectRatio="xMidYMid meet">
<metadata>
Created by potrace 1.14, written by Peter Selinger 2001-2017
</metadata>
<g transform="translate(0.000000,512.000000) scale(0.100000,-0.100000)"
fill="#000000" stroke="none">
<path d="M2077 4964 c-1 -1 -72 -5 -157 -8 -156 -7 -201 -10 -299 -22 l-53 -6
63 -56 c341 -302 754 -805 1114 -1356 84 -129 266 -426 319 -521 9 -16 34 -61
56 -100 91 -159 172 -313 305 -574 77 -152 145 -275 150 -275 6 1 46 5 90 8
44 4 96 9 115 11 19 3 59 7 90 10 30 3 71 7 91 10 20 3 54 7 75 10 130 13 461
71 694 120 25 6 111 27 185 47 39 11 77 21 85 23 81 22 87 30 110 163 24 138
-2 266 -101 498 -184 435 -704 1367 -928 1663 -71 94 -190 200 -266 238 -47
24 -155 59 -205 67 -19 3 -44 8 -55 10 -11 2 -52 7 -92 11 -40 4 -85 8 -100
10 -91 11 -387 18 -806 19 -263 1 -479 0 -480 0z"/>
<path d="M1324 4872 c-150 -53 -239 -134 -376 -347 -37 -57 -321 -560 -455
-805 -166 -304 -370 -707 -387 -766 -6 -21 -5 -21 93 7 54 15 112 30 128 33
15 2 104 21 196 40 92 19 191 38 220 41 29 3 59 8 68 11 10 3 30 6 45 8 57 8
119 17 144 21 27 5 75 11 160 20 30 4 66 8 80 10 14 2 57 6 95 10 39 3 86 8
105 10 19 2 73 7 120 10 47 4 105 8 130 10 167 14 366 19 717 20 l402 0 -21
35 c-72 121 -349 526 -476 695 -216 288 -368 468 -582 688 -106 110 -297 277
-315 277 -5 0 -46 -13 -91 -28z"/>
<path d="M1539 3066 c-2 -2 -40 -7 -84 -11 -99 -8 -147 -13 -205 -20 -25 -3
-67 -7 -95 -10 -27 -4 -61 -8 -75 -10 -14 -2 -45 -7 -70 -10 -49 -6 -355 -55
-380 -60 -8 -2 -80 -18 -160 -35 -80 -17 -155 -33 -167 -36 -12 -2 -34 -9 -48
-14 -14 -5 -25 -8 -25 -6 0 2 -41 -8 -92 -23 -102 -30 -94 -21 -123 -146 -36
-156 -5 -299 128 -595 75 -167 193 -398 317 -625 15 -27 47 -86 70 -130 203
-379 464 -794 577 -916 50 -54 148 -131 198 -157 84 -42 219 -75 360 -88 39
-3 86 -8 105 -10 212 -24 1357 -23 1630 1 76 7 144 15 147 19 2 2 -16 19 -40
39 -124 101 -413 408 -582 617 -42 52 -84 104 -93 115 -75 89 -332 450 -456
640 -144 219 -353 571 -481 810 -21 39 -50 93 -65 120 -16 28 -83 159 -149
292 -112 224 -132 258 -142 249z"/>
<path d="M4895 2143 c-155 -42 -506 -111 -705 -138 -25 -3 -56 -8 -70 -10 -47
-7 -185 -24 -240 -30 -107 -10 -165 -16 -195 -20 -16 -2 -68 -7 -115 -10 -47
-3 -107 -8 -135 -10 -176 -14 -408 -20 -742 -20 -380 0 -382 0 -369 -20 7 -11
34 -56 61 -100 27 -44 52 -82 55 -85 5 -5 78 -113 95 -142 49 -82 313 -444
428 -588 143 -177 301 -355 437 -490 163 -164 214 -207 283 -240 44 -20 53
-21 90 -10 158 46 277 154 414 375 31 51 242 424 296 525 16 30 35 65 43 77 7
11 26 45 42 75 16 29 39 71 52 93 97 173 271 511 344 670 21 44 41 88 47 97
19 35 9 36 -116 1z"/>
</g>
</svg>
